%YAML 1.1
%TAG !u! tag:unity3d.com,2011:
--- !u!1045 &1
EditorBuildSettings:
  m_ObjectHideFlags: 0
  serializedVersion: 2
  m_Scenes:
  - enabled: 1
    path: Assets/Scenes/SampleScene.unity
    guid: 2cda990e2423bbf4892e6590ba056729
  - enabled: 1
    path: Assets/Scenes/Level1.unity
    guid: 22f39f09d18a09142863f70229e1a9c5
  - enabled: 1
    path: Assets/Scenes/End.unity
    guid: e2055d34a5056934c9a740065ef35a9f
  m_configObjects: {}
